<?xml version="1.0" encoding="UTF-8" standalone="no"?>
<svg
   viewBox="0 0 16 16"
   version="1.1"
   id="svg4"
   sodipodi:docname="save_icon.svg"
   width="16"
   height="16"
   inkscape:version="1.2 (dc2aedaf03, 2022-05-15)"
   xmlns:inkscape="http://www.inkscape.org/namespaces/inkscape"
   xmlns:sodipodi="http://sodipodi.sourceforge.net/DTD/sodipodi-0.dtd"
   xmlns="http://www.w3.org/2000/svg"
   xmlns:svg="http://www.w3.org/2000/svg">
  <defs
     id="defs8" />
  <sodipodi:namedview
     id="namedview6"
     pagecolor="#ffffff"
     bordercolor="#666666"
     borderopacity="1.0"
     inkscape:showpageshadow="2"
     inkscape:pageopacity="0.0"
     inkscape:pagecheckerboard="0"
     inkscape:deskcolor="#d1d1d1"
     showgrid="false"
     inkscape:zoom="2.0058594"
     inkscape:cx="228.8296"
     inkscape:cy="229.07887"
     inkscape:window-width="2357"
     inkscape:window-height="1176"
     inkscape:window-x="306"
     inkscape:window-y="117"
     inkscape:window-maximized="0"
     inkscape:current-layer="svg4" />
  <!--! Font Awesome Pro 6.4.0 by @fontawesome - https://fontawesome.com License - https://fontawesome.com/license (Commercial License) Copyright 2023 Fonticons, Inc. -->
  <path
     d="M 2.2857143,0 C 1.025,0 0,1.025 0,2.285714 V 13.714286 C 0,14.975 1.025,16 2.2857143,16 H 13.714286 C 14.975,16 16,14.975 16,13.714286 V 5.046429 C 16,4.439286 15.760714,3.857143 15.332143,3.428571 L 12.571429,0.667857 C 12.142857,0.239286 11.560714,0 10.953571,0 Z m 0,3.428571 c 0,-0.632142 0.5107143,-1.142857 1.1428571,-1.142857 h 6.8571426 c 0.632143,0 1.142857,0.510715 1.142857,1.142857 v 2.285715 c 0,0.632143 -0.510714,1.142857 -1.142857,1.142857 H 3.4285714 c -0.6321428,0 -1.1428571,-0.510714 -1.1428571,-1.142857 z M 8,9.142857 a 2.2857145,2.2857145 0 1 1 0,4.571429 2.2857145,2.2857145 0 1 1 0,-4.571429 z"
     id="path2"
     style="stroke-width:0.0357143;fill:#ffffff" />
</svg>
