<?xml version="1.0" encoding="UTF-8" standalone="no"?>
<svg
   viewBox="0 0 60 60"
   alt="Stop"
   version="1.1"
   id="svg1"
   sodipodi:docname="stop_icon_2.svg"
   width="60"
   height="60"
   inkscape:version="1.3 (0e150ed6c4, 2023-07-21)"
   xmlns:inkscape="http://www.inkscape.org/namespaces/inkscape"
   xmlns:sodipodi="http://sodipodi.sourceforge.net/DTD/sodipodi-0.dtd"
   xmlns="http://www.w3.org/2000/svg"
   xmlns:svg="http://www.w3.org/2000/svg">
  <defs
     id="defs1" />
  <sodipodi:namedview
     id="namedview1"
     pagecolor="#ffffff"
     bordercolor="#000000"
     borderopacity="0.25"
     inkscape:showpageshadow="2"
     inkscape:pageopacity="0.0"
     inkscape:pagecheckerboard="0"
     inkscape:deskcolor="#d1d1d1"
     inkscape:zoom="130.33333"
     inkscape:cx="3.4987212"
     inkscape:cy="3.5025575"
     inkscape:window-width="3440"
     inkscape:window-height="1369"
     inkscape:window-x="-8"
     inkscape:window-y="-8"
     inkscape:window-maximized="1"
     inkscape:current-layer="svg1" />
  <path
     d="M 51.428571,0 H 8.5714286 A 8.5714286,8.5714286 0 0 0 0,8.5714286 V 51.428571 A 8.5714286,8.5714286 0 0 0 8.5714286,60 H 51.428571 A 8.5714286,8.5714286 0 0 0 60,51.428571 V 8.5714286 A 8.5714286,8.5714286 0 0 0 51.428571,0 Z"
     id="path1"
     style="stroke-width:8.57143;fill:#ffffff" />
</svg>
